newmtl CharacterMesh0SG
illum 4
Kd 1.00 1.00 1.00
Ka 0.20 0.20 0.20
Tf 1.00 1.00 1.00
Ni 1.00
Ks 0.20 0.20 0.20
Ns 18.00
newmtl CharacterMesh0SG1
illum 4
Kd 0.72 0.72 0.72
Ka 0.20 0.20 0.20
Tf 1.00 1.00 1.00
Ni 1.00
newmtl blinn1SG
illum 4
Kd 0.98 0.98 0.98
Ka 0.00 0.00 0.00
Tf 1.00 1.00 1.00
Ni 1.00
newmtl initialShadingGroup
illum 4
Kd 0.50 0.50 0.50
Ka 0.00 0.00 0.00
Tf 1.00 1.00 1.00
Ni 1.00
newmtl lambert3SG
illum 4
Kd 1.00 0.50 0.00
Ka 0.00 0.00 0.00
Tf 1.00 1.00 1.00
Ni 1.00
newmtl lambert4SG
illum 4
Kd 0.14 0.14 0.14
Ka 0.00 0.00 0.00
Tf 1.00 1.00 1.00
Ni 1.00
newmtl lambert5SG
illum 4
Kd 0.03 0.03 0.03
Ka 0.00 0.00 0.00
Tf 1.00 1.00 1.00
Ni 1.00
newmtl lambert8SG
illum 4
Kd 0.50 0.50 0.50
Ka 0.00 0.00 0.00
Tf 1.00 1.00 1.00
Ni 1.00
newmtl lambert9SG
illum 4
Kd 0.50 0.50 0.50
Ka 0.00 0.00 0.00
Tf 1.00 1.00 1.00
Ni 1.00
